\relax 
\catcode`"\active
\ifx\hyper@anchor\@undefined
\global \let \oldcontentsline\contentsline
\gdef \contentsline#1#2#3#4{\oldcontentsline{#1}{#2}{#3}}
\global \let \oldnewlabel\newlabel
\gdef \newlabel#1#2{\newlabelxx{#1}#2}
\gdef \newlabelxx#1#2#3#4#5#6{\oldnewlabel{#1}{{#2}{#3}}}
\AtEndDocument{\let \contentsline\oldcontentsline
\let \newlabel\oldnewlabel}
\else
\global \let \hyper@last\relax 
\fi

\select@language{slovene}
\@writefile{toc}{\select@language{slovene}}
\@writefile{lof}{\select@language{slovene}}
\@writefile{lot}{\select@language{slovene}}
\@writefile{toc}{\contentsline {chapter}{\numberline {1}Navadne diferencialne ena\IeC {\v c}be}{2}{chapter.1}}
\@writefile{lof}{\addvspace {10\p@ }}
\@writefile{lot}{\addvspace {10\p@ }}
\newlabel{eq:Newton2}{{1.1}{2}{Navadne diferencialne enačbe\relax }{equation.1.1}{}}
\@writefile{toc}{\contentsline {section}{\numberline {1.1}Numeri\IeC {\v c}ne metode za za\IeC {\v c}etni problem}{2}{section.1.1}}
\newlabel{eq:DE1}{{1.2}{2}{Numerične metode za začetni problem\relax }{equation.1.2}{}}
\@writefile{toc}{\contentsline {subsection}{\numberline {1.1.1}Metoda Runge-Kutta 4}{3}{subsection.1.1.1}}
\@writefile{toc}{\contentsline {subsection}{\numberline {1.1.2}Metode prirejene za sisteme NDE}{3}{subsection.1.1.2}}
\@writefile{toc}{\contentsline {subsection}{\numberline {1.1.3}Testiranje metode RK4}{5}{subsection.1.1.3}}
\@writefile{toc}{\contentsline {section}{\numberline {1.2}Orbita Zemljinega satelita}{5}{section.1.2}}
\newlabel{eq:enacbe_monopol}{{1.3}{5}{Izpeljava sistema diferencialnih enačb\relax }{equation.1.3}{}}
\newlabel{eq:newton_kvad}{{1.4}{6}{Izpeljava sistema diferencialnih enačb\relax }{equation.1.4}{}}
\@writefile{toc}{\contentsline {subsection}{\numberline {1.2.1}Programi in rezultati}{7}{subsection.1.2.1}}
