%!PS-Adobe-2.0 EPSF-1.2
%%Creator: MATLAB, The Mathworks, Inc.
%%Title: spline.eps
%%CreationDate: 03/31/ 3  18:22:52
%%DocumentNeededFonts: Helvetica
%%DocumentProcessColors: Cyan Magenta Yellow Black
%%Pages: 1
%%BoundingBox:    65   210   549   589
%%EndComments

%%BeginProlog

% MathWorks dictionary
/MathWorks 160 dict begin

% definition operators
/bdef {bind def} bind def
/ldef {load def} bind def
/xdef {exch def} bdef
/xstore {exch store} bdef

% operator abbreviations
/c  /clip ldef
/cc /concat ldef
/cp /closepath ldef
/gr /grestore ldef
/gs /gsave ldef
/mt /moveto ldef
/np /newpath ldef
/cm /currentmatrix ldef
/sm /setmatrix ldef
/rc {rectclip} bdef
/rf {rectfill} bdef
/rm /rmoveto ldef
/rl /rlineto ldef
/s /show ldef
/sc {setcmykcolor} bdef
/sr /setrgbcolor ldef
/sg /setgray ldef
/w /setlinewidth ldef
/j /setlinejoin ldef
/cap /setlinecap ldef

% page state control
/pgsv () def
/bpage {/pgsv save def} bdef
/epage {pgsv restore} bdef
/bplot /gsave ldef
/eplot {stroke grestore} bdef

% orientation switch
/portraitMode 	0 def
/landscapeMode 	1 def

% coordinate system mappings
/dpi2point 0 def

% font control
/FontSize 0 def
/FMS {
	/FontSize xstore		%save size off stack
	findfont
	[FontSize 0 0 FontSize neg 0 0]
	makefont
	setfont
	}bdef

/reencode {
exch dup where
{pop load} {pop StandardEncoding} ifelse
exch
dup 3 1 roll
findfont dup length dict begin
  { 1 index /FID ne {def}{pop pop} ifelse } forall
  /Encoding exch def
  currentdict
end
definefont pop
} bdef

/isroman {
findfont /CharStrings get
/Agrave known
} bdef

/FMSR {
3 1 roll 1 index
dup isroman
{reencode} {pop pop} ifelse
exch FMS
} bdef

/csm {
	1 dpi2point div -1 dpi2point div scale
	neg translate
	landscapeMode eq {90 rotate} if
	} bdef

% line types: solid, dotted, dashed, dotdash
/SO { [] 0 setdash } bdef
/DO { [.5 dpi2point mul 4 dpi2point mul] 0 setdash } bdef
/DA { [6 dpi2point mul] 0 setdash } bdef
/DD { [.5 dpi2point mul 4 dpi2point mul 6 dpi2point mul 4 dpi2point mul] 0 setdash } bdef

% macros for lines and objects
/L {
	lineto
	stroke
	} bdef
/MP {
	3 1 roll moveto
	1 sub {rlineto} repeat
	} bdef
/AP {
	{rlineto} repeat
	} bdef
/PP {
	closepath eofill
	} bdef
/DP {
	closepath stroke
	} bdef
/MR {
	4 -2 roll moveto
	dup  0 exch rlineto
	exch 0 rlineto
	neg  0 exch rlineto
	closepath
	} bdef
/FR {
	MR stroke
	} bdef
/PR {
	MR fill
	} bdef
/L1i {
	{ currentfile picstr readhexstring pop } image
	} bdef

/tMatrix matrix def
/MakeOval {
	newpath
	tMatrix currentmatrix pop
	translate scale
	0 0 1 0 360 arc
	tMatrix setmatrix
	} bdef
/FO {
	MakeOval
	stroke
	} bdef
/PO {
	MakeOval
	fill
	} bdef

/PD {
	currentlinecap 1 setlinecap 3 1 roll 2 copy moveto lineto stroke setlinecap
	} bdef

/FA {
	newpath
	tMatrix currentmatrix pop
	translate scale
	0 0 1 5 -2 roll arc
	tMatrix setmatrix
	stroke
	} bdef
/PA {
	newpath
	tMatrix currentmatrix pop
	translate 0 0 moveto scale
	0 0 1 5 -2 roll arc
	closepath
	tMatrix setmatrix
	fill
	} bdef

/FAn {
	newpath
	tMatrix currentmatrix pop
	translate scale
	0 0 1 5 -2 roll arcn
	tMatrix setmatrix
	stroke
	} bdef
/PAn {
	newpath
	tMatrix currentmatrix pop
	translate 0 0 moveto scale
	0 0 1 5 -2 roll arcn
	closepath
	tMatrix setmatrix
	fill
	} bdef

/vradius 0 def
/hradius 0 def
/lry 0 def
/lrx 0 def
/uly 0 def
/ulx 0 def
/rad 0 def

/MRR {
	/vradius xdef
	/hradius xdef
	/lry xdef
	/lrx xdef
	/uly xdef
	/ulx xdef
	newpath
	tMatrix currentmatrix pop
	ulx hradius add uly vradius add translate
	hradius vradius scale
	0 0 1 180 270 arc 
	tMatrix setmatrix
	lrx hradius sub uly vradius add translate
	hradius vradius scale
	0 0 1 270 360 arc
	tMatrix setmatrix
	lrx hradius sub lry vradius sub translate
	hradius vradius scale
	0 0 1 0 90 arc
	tMatrix setmatrix
	ulx hradius add lry vradius sub translate
	hradius vradius scale
	0 0 1 90 180 arc
	tMatrix setmatrix
	closepath
	} bdef
/FRR {
	MRR stroke } bdef
/PRR {
	MRR fill } bdef

/MlrRR {
	/lry xdef
	/lrx xdef
	/uly xdef
	/ulx xdef
	/rad lry uly sub 2 div def
	newpath
	tMatrix currentmatrix pop
	ulx rad add uly rad add translate
	rad rad scale
	0 0 1 90 270 arc
	tMatrix setmatrix
	lrx rad sub lry rad sub translate
	rad rad scale
	0 0 1 270 90 arc
	tMatrix setmatrix
	closepath
	} bdef
/FlrRR {
	MlrRR stroke } bdef
/PlrRR {
	MlrRR fill } bdef

/MtbRR {
	/lry xdef
	/lrx xdef
	/uly xdef
	/ulx xdef
	/rad lrx ulx sub 2 div def
	newpath
	tMatrix currentmatrix pop
	ulx rad add uly rad add translate
	rad rad scale
	0 0 1 180 360 arc
	tMatrix setmatrix
	lrx rad sub lry rad sub translate
	rad rad scale
	0 0 1 0 180 arc
	tMatrix setmatrix
	closepath
	} bdef
/FtbRR {
	MtbRR stroke } bdef
/PtbRR {
	MtbRR fill } bdef

currentdict end def
%%EndProlog

%%BeginSetup
MathWorks begin

0 cap

end
%%EndSetup

%%Page: 1 1
%%BeginPageSetup
%%PageBoundingBox:    65   210   549   589
MathWorks begin
bpage
%%EndPageSetup

%%BeginObject: obj1
bplot

/dpi2point 12 def
portraitMode 0216 7344 csm

  574   273  5801  4541 MR c np
93 dict begin %Colortable dictionary
/c0 { 0 0 0 sr} bdef
/c1 { 1 1 1 sr} bdef
/c2 { 1 0 0 sr} bdef
/c3 { 0 1 0 sr} bdef
/c4 { 0 0 1 sr} bdef
/c5 { 1 1 0 sr} bdef
/c6 { 1 0 1 sr} bdef
/c7 { 0 1 1 sr} bdef
c0
1 j
1 sg
   0    0 6918 5185 PR
6 w
0 4224 5356 0 0 -4224 901 4613 4 MP
PP
-5356 0 0 4224 5356 0 0 -4224 901 4613 5 MP stroke
4 w
DO
SO
6 w
0 sg
 901 4613 mt 6257 4613 L
 901 4613 mt  901  389 L
 901 4613 mt  901 4559 L
%%IncludeResource: font Helvetica
/Helvetica /ISOLatin1Encoding 120 FMSR

 868 4759 mt 
(1) s
1794 4613 mt 1794 4559 L
1761 4759 mt 
(2) s
2686 4613 mt 2686 4559 L
2653 4759 mt 
(3) s
3579 4613 mt 3579 4559 L
3546 4759 mt 
(4) s
4472 4613 mt 4472 4559 L
4439 4759 mt 
(5) s
5364 4613 mt 5364 4559 L
5331 4759 mt 
(6) s
6257 4613 mt 6257 4559 L
6224 4759 mt 
(7) s
 901 4587 mt  955 4587 L
 631 4631 mt 
(-0.5) s
 901 4141 mt  955 4141 L
 801 4185 mt 
(0) s
 901 3694 mt  955 3694 L
 701 3738 mt 
(0.5) s
 901 3248 mt  955 3248 L
 801 3292 mt 
(1) s
 901 2802 mt  955 2802 L
 701 2846 mt 
(1.5) s
 901 2356 mt  955 2356 L
 801 2400 mt 
(2) s
 901 1909 mt  955 1909 L
 701 1953 mt 
(2.5) s
 901 1463 mt  955 1463 L
 801 1507 mt 
(3) s
 901 1017 mt  955 1017 L
 701 1061 mt 
(3.5) s
 901  570 mt  955  570 L
 801  614 mt 
(4) s
gs 901 389 5357 4225 MR c np
gr

gs 828 4068 147 147 MR c np
  36   36  901 4141 FO
gr

gs 901 389 5357 4225 MR c np
9 -4 9 -6 9 -6 9 -7 9 -8 9 -8 9 -9 9 -10 
9 -10 9 -11 9 -11 9 -12 9 -13 9 -13 9 -13 9 -15 
9 -14 9 -15 10 -16 9 -16 9 -17 9 -17 9 -17 9 -18 
9 -18 9 -19 9 -19 9 -19 9 -20 9 -20 9 -20 9 -20 
9 -21 9 -22 9 -21 9 -22 9 -22 9 -22 9 -22 9 -23 
9 -22 9 -23 9 -23 9 -23 9 -24 9 -23 9 -23 9 -24 
9 -24 9 -23 9 -24 9 -24 9 -23 9 -24 9 -24 9 -24 
9 -23 9 -24 9 -23 9 -24 9 -23 9 -23 9 -23 9 -23 
9 -23 9 -23 9 -22 9 -22 9 -22 9 -22 9 -22 9 -21 
9 -21 9 -21 9 -21 9 -20 9 -20 9 -19 9 -19 9 -19 
10 -19 9 -18 9 -17 9 -18 9 -16 9 -17 9 -16 9 -15 
9 -15 9 -14 9 -14 9 -14 9 -13 9 -12 9 -12 9 -11 
9 -10 9 -10 9 -10 901 4141 100 MP stroke
gs 1721 2283 147 147 MR c np
  36   36 1794 2356 FO
gr

9 0 9 -1 9 -1 9 -2 9 -1 9 -3 9 -3 9 -3 
9 -3 9 -4 9 -5 9 -4 9 -5 9 -6 9 -6 9 -6 
9 -6 9 -7 9 -7 9 -7 9 -8 9 -7 9 -9 9 -8 
9 -9 9 -9 9 -9 9 -9 9 -10 9 -10 9 -10 9 -10 
9 -10 9 -11 9 -11 9 -11 9 -11 9 -11 9 -11 9 -12 
9 -12 9 -11 9 -12 9 -12 9 -12 9 -12 9 -13 9 -12 
9 -12 9 -13 9 -12 9 -13 9 -12 9 -13 9 -12 10 -13 
9 -12 9 -13 9 -12 9 -13 9 -12 9 -12 9 -13 9 -12 
9 -12 9 -12 9 -12 9 -12 9 -12 9 -11 9 -12 9 -11 
9 -11 9 -12 9 -11 9 -10 9 -11 9 -10 9 -11 9 -10 
9 -9 9 -10 9 -9 9 -10 9 -9 9 -8 9 -9 9 -8 
9 -8 9 -7 9 -8 9 -7 9 -6 9 -7 9 -6 9 -5 
9 -6 9 -5 9 -5 1794 2356 100 MP stroke
gs 2613 1390 147 147 MR c np
  36   36 2686 1463 FO
gr

9 0 9 2 9 3 9 3 9 5 9 6 9 6 9 8 
9 8 9 10 9 10 9 11 9 12 9 13 9 13 9 15 
9 15 9 15 9 17 9 17 9 18 9 18 9 19 9 20 
9 20 9 21 9 21 9 21 9 23 9 22 10 23 9 24 
9 24 9 24 9 24 9 25 9 26 9 25 9 26 9 26 
9 26 9 26 9 27 9 26 9 27 9 27 9 27 9 27 
9 27 9 27 9 27 9 27 9 27 9 27 9 27 9 26 
9 27 9 26 9 26 9 26 9 26 9 25 9 26 9 24 
9 25 9 24 9 24 9 24 9 23 9 22 9 22 9 22 
9 21 9 21 9 20 9 20 9 19 9 18 9 18 9 17 
9 16 9 16 9 15 9 15 9 13 9 13 9 12 9 11 
9 10 9 9 9 9 9 8 10 6 9 6 9 5 9 3 
9 3 9 1 9 1 2686 1463 100 MP stroke
gs 3506 3175 147 147 MR c np
  36   36 3579 3248 FO
gr

9 -9 9 -10 9 -11 9 -12 9 -12 9 -13 10 -13 9 -14 
9 -15 9 -15 9 -16 9 -16 9 -17 9 -17 9 -18 9 -18 
9 -19 9 -19 9 -20 9 -20 9 -20 9 -21 9 -21 9 -22 
9 -22 9 -22 9 -23 9 -22 9 -23 9 -24 9 -23 9 -24 
9 -24 9 -24 9 -24 9 -25 9 -24 9 -25 9 -25 9 -25 
9 -25 9 -25 9 -25 9 -25 9 -25 9 -25 9 -25 9 -25 
9 -25 9 -25 9 -24 9 -25 9 -24 9 -25 9 -24 9 -24 
9 -23 9 -24 9 -23 9 -23 9 -23 9 -23 9 -22 9 -22 
9 -21 9 -21 9 -21 9 -21 10 -20 9 -20 9 -19 9 -19 
9 -18 9 -18 9 -17 9 -17 9 -16 9 -16 9 -15 9 -15 
9 -14 9 -13 9 -13 9 -12 9 -11 9 -11 9 -10 9 -10 
9 -8 9 -8 9 -7 9 -7 9 -5 9 -5 9 -4 9 -3 
9 -2 9 -2 9 0 3579 3248 100 MP stroke
gs 4399 1390 147 147 MR c np
  36   36 4472 1463 FO
gr

9 8 9 8 9 7 9 7 9 6 9 5 9 5 9 3 
9 4 9 2 9 2 9 2 9 0 9 1 9 -1 9 -1 
9 -1 9 -2 9 -3 9 -3 9 -4 9 -4 9 -4 9 -5 
9 -6 9 -6 9 -6 9 -7 9 -7 9 -8 9 -8 9 -9 
9 -8 9 -10 9 -9 9 -10 9 -10 9 -11 9 -11 9 -11 
9 -11 9 -12 9 -12 10 -12 9 -13 9 -12 9 -13 9 -13 
9 -14 9 -13 9 -14 9 -14 9 -14 9 -14 9 -14 9 -15 
9 -14 9 -15 9 -15 9 -14 9 -15 9 -15 9 -15 9 -15 
9 -15 9 -15 9 -15 9 -15 9 -15 9 -15 9 -15 9 -15 
9 -15 9 -14 9 -15 9 -15 9 -14 9 -14 9 -14 9 -15 
9 -13 9 -14 9 -14 9 -13 9 -13 9 -13 9 -13 9 -12 
9 -12 9 -12 9 -12 9 -12 9 -11 9 -11 9 -10 9 -10 
9 -10 9 -10 9 -9 4472 1463 100 MP stroke
gs 5291 497 147 147 MR c np
  36   36 5364  570 FO
gr

9 1 9 1 9 2 9 4 9 3 9 5 9 6 9 6 
9 7 9 8 9 9 9 9 9 10 9 11 9 12 9 12 
9 12 9 14 10 14 9 15 9 15 9 15 9 17 9 17 
9 17 9 18 9 18 9 19 9 19 9 20 9 20 9 20 
9 21 9 21 9 22 9 22 9 22 9 23 9 22 9 23 
9 24 9 23 9 24 9 24 9 24 9 24 9 25 9 24 
9 25 9 25 9 25 9 25 9 25 9 25 9 25 9 25 
9 25 9 25 9 25 9 25 9 24 9 25 9 25 9 24 
9 24 9 25 9 24 9 23 9 24 9 23 9 23 9 23 
9 22 9 23 9 22 9 21 9 21 9 21 9 21 9 20 
10 19 9 20 9 18 9 19 9 18 9 17 9 17 9 16 
9 16 9 15 9 15 9 14 9 13 9 13 9 12 9 11 
9 11 9 10 9 10 5364 570 100 MP stroke
gr

gs 6184 2283 147 147 MR c np
  36   36 6257 2356 FO
gr

gs 901 389 5357 4225 MR c np
DO
11 -9 11 -25 10 -39 11 -49 11 -59 11 -66 10 -70 11 -74 
11 -76 11 -76 10 -76 11 -74 11 -71 10 -68 11 -64 11 -60 
11 -54 10 -48 11 -43 11 -37 11 -30 10 -24 11 -17 11 -11 
11 -5 10 2 11 8 11 14 10 20 11 25 11 31 11 37 
10 41 11 46 11 50 11 55 10 58 11 61 11 65 11 68 
10 70 11 72 11 75 10 76 11 77 11 78 11 79 10 80 
11 80 11 80 11 79 10 79 11 79 11 77 11 77 10 75 
11 74 11 72 10 70 11 69 11 67 11 64 10 62 11 60 
11 58 11 55 10 52 11 51 11 47 10 45 11 42 11 40 
11 37 10 34 11 32 11 29 11 27 10 24 11 21 11 19 
11 17 10 15 11 12 11 10 10 8 11 6 11 3 11 2 
10 1 11 -2 11 -3 11 -5 10 -6 11 -8 11 -9 11 -10 
10 -11 11 -13 11 -13 5194 622 100 MP stroke
10 -14 11 -15 11 -16 11 -16 10 -17 11 -18 11 -17 11 -19 
10 -18 11 -19 11 -18 11 -19 10 -19 11 -19 11 -19 10 -18 
11 -19 11 -18 11 -18 10 -18 11 -17 11 -17 11 -17 10 -16 
11 -16 11 -16 11 -15 10 -14 11 -14 11 -14 10 -13 11 -13 
11 -12 11 -12 10 -11 11 -11 11 -11 11 -10 10 -10 11 -9 
11 -9 11 -9 10 -8 11 -8 11 -8 10 -8 11 -7 11 -7 
11 -8 10 -7 11 -7 11 -7 11 -7 10 -7 11 -7 11 -7 
10 -7 11 -8 11 -7 11 -8 10 -8 11 -9 11 -9 11 -9 
10 -9 11 -10 11 -10 11 -11 10 -12 11 -11 11 -13 10 -13 
11 -13 11 -14 11 -15 10 -15 11 -16 11 -16 11 -17 10 -18 
11 -18 11 -20 11 -19 10 -21 11 -21 11 -21 10 -23 11 -23 
11 -23 11 -24 10 -25 11 -25 11 -26 11 -27 10 -26 11 -28 
11 -28 11 -28 10 -29 4132 2098 100 MP stroke
11 -29 11 -30 10 -29 11 -31 11 -30 11 -31 10 -30 11 -31 
11 -31 11 -32 10 -31 11 -31 11 -31 11 -31 10 -31 11 -31 
11 -30 10 -31 11 -30 11 -29 11 -29 10 -29 11 -29 11 -27 
11 -28 10 -26 11 -26 11 -26 11 -25 10 -23 11 -24 11 -22 
10 -21 11 -21 11 -19 11 -19 10 -18 11 -16 11 -16 11 -14 
10 -14 11 -12 11 -11 11 -10 10 -9 11 -7 11 -6 10 -5 
11 -4 11 -3 11 -1 10 0 11 1 11 3 11 4 10 5 
11 6 11 8 10 9 11 10 11 11 11 13 10 13 11 15 
11 17 11 17 10 18 11 20 11 20 11 22 10 22 11 24 
11 24 10 26 11 26 11 27 11 28 10 29 11 29 11 30 
11 30 10 32 11 31 11 32 11 33 10 33 11 33 11 34 
10 33 11 34 11 34 11 35 10 34 11 34 11 34 11 34 
10 34 11 33 11 33 3069 2141 100 MP stroke
11 33 10 33 11 32 11 31 10 31 11 31 11 30 11 29 
10 29 11 27 11 27 11 27 10 25 11 24 11 24 11 23 
10 21 11 21 11 19 10 19 11 17 11 17 11 15 10 14 
11 13 11 12 11 11 10 9 11 8 11 8 11 6 10 4 
11 4 11 2 10 2 11 0 11 -1 11 -2 10 -3 11 -4 
11 -6 11 -6 10 -7 11 -8 11 -10 11 -10 10 -11 11 -11 
11 -13 10 -13 11 -15 11 -14 11 -16 10 -16 11 -17 11 -17 
11 -17 10 -18 11 -19 11 -18 10 -19 11 -20 11 -19 11 -20 
10 -19 11 -20 11 -20 11 -19 10 -20 11 -19 11 -19 11 -19 
10 -19 11 -19 11 -18 10 -17 11 -18 11 -17 11 -16 10 -16 
11 -15 11 -15 11 -14 10 -14 11 -13 11 -13 11 -11 10 -12 
11 -10 11 -10 10 -9 11 -9 11 -8 11 -7 10 -7 11 -7 
11 -5 11 -5 10 -5 2007 2297 100 MP stroke
11 -4 11 -4 11 -4 10 -3 11 -2 11 -3 10 -2 11 -2 
11 -2 11 -2 10 -2 11 -2 11 -2 11 -3 10 -2 11 -3 
11 -4 11 -4 10 -4 11 -5 11 -6 10 -7 11 -7 11 -9 
11 -9 10 -11 11 -11 11 -13 11 -14 10 -16 11 -17 11 -18 
11 -19 10 -22 11 -23 11 -24 10 -26 11 -28 11 -29 11 -32 
10 -32 11 -35 11 -36 11 -38 10 -40 11 -41 11 -43 10 -44 
11 -46 11 -48 11 -48 10 -50 11 -51 11 -52 11 -53 10 -54 
11 -54 11 -55 11 -55 10 -55 11 -56 11 -55 10 -55 11 -54 
11 -53 11 -53 10 -51 11 -50 11 -48 11 -47 10 -44 11 -42 
11 -40 11 -36 10 -34 11 -31 11 -28 10 -23 11 -21 11 -16 
11 -13 10 -9 11 -5 11 -1 11 4 10 7 11 11 11 14 
11 19 10 21 11 24 11 26 10 28 11 30 11 30 11 30 
10 28 11 27 11 23 944 4170 100 MP stroke
11 18 10 12 11 5 11 -6 901 4141 5 MP stroke
gr

DO
SO

end

eplot
%%EndObject

epage
end

showpage

%%Trailer
%%EOF
